{
  "addons": {
    "magnolia_limited_permissions@12.34": {
      "updates": [
        { "version": "3.1.9.0",
            "update_link": "https://gitlab.com/magnolia1234/bpc-uploads/-/raw/master/bypass_paywalls_clean-3.1.9.0-custom.xpi" }
        ]
    }
  }
}
